…
``` r
usDist <- noMod %>%
  select(name, city, state, latitude, longitude) %>%
  mutate(meanLat = mean(as.numeric(latitude), na.rm = TRUE), 
         meanLong = mean(as.numeric(longitude), na.rm = TRUE),
         distFromMean = sqrt(((as.numeric(latitude) - meanLat)^2) +
           ((as.numeric(longitude)- meanLong)^2)))
usDist
```

    ## # A tibble: 50 × 8
    ##    name                      city  state latit…¹ longi…² meanLat meanL…³ distF…⁴
    ##    <chr>                     <chr> <chr> <chr>   <chr>     <dbl>   <dbl>   <dbl>
    ##  1 10-56 Brewing Company     Knox  Indi… 41.289… -86.62…    41.0   -100.   13.8 
    ##  2 10 Barrel Brewing Co      Bend  Oreg… 44.086… -121.2…    41.0   -100.   21.1 
    ##  3 10 Barrel Brewing Co      Bend  Oreg… 44.057… -121.3…    41.0   -100.   21.1 
    ##  4 10 Barrel Brewing Co - B… Bend  Oreg… 44.091… -121.2…    41.0   -100.   21.1 
    ##  5 10 Barrel Brewing Co - B… Boise Idaho 43.618… -116.2…    41.0   -100.   16.0 
    ##  6 10 Barrel Brewing Co - D… Denv… Colo… 39.759… -104.9…    41.0   -100.    4.69
    ##  7 10 Barrel Brewing Co      Port… Oreg… 45.525… -122.6…    41.0   -100.   22.7 
    ##  8 10 Barrel Brewing Co      San … Cali… 32.714… -117.1…    41.0   -100.   18.6 
    ##  9 10 Torr Distilling and B… Reno  Neva… 39.517… -119.7…    41.0   -100.   19.4 
    ## 10 101 Brewery               Quil… Wash… 47.823… -122.8…    41.0   -100.   23.4 
    ## # … with 40 more rows, and abbreviated variable names ¹​latitude, ²​longitude,
    ## #   ³​meanLong, ⁴​distFromMean
How did we do? We can do another call using
`get_brewery(state = "kansas")` to check. Because we’re only doing a
quick check against the `latitude` and `longitude` values, we’re not
concerned with grabbing the other variables this time. We can compare
`meanLat` and `meanLong` with the latitude and longitude values from
breweries located in Kansas. As a side note, this API allows for
searching by partial match, so calling `get_brewery(state = "kansas")`
returns results for both Kansas and Arkansas.

``` r
get_brewery(state = "kansas") %>%
  select(latitude, longitude)
```

    ## # A tibble: 50 × 2
    ##    latitude    longitude   
    ##    <chr>       <chr>       
    ##  1 38.9429674  -95.28093353
    ##  2 37.68455054 -97.35071131
    ##  3 36.1297079  -94.1372796 
    ##  4 37.69517328 -97.44431468
    ##  5 38.639049   -98.667933  
    ##  6 36.3168272  -94.1178372 
    ##  7 36.364069   -94.200584  
    ##  8 <NA>        <NA>        
    ##  9 39.0002602  -95.6846745 
    ## 10 34.73235496 -92.25366807
    ## # … with 40 more rows

We were close, but not quite what we were hoping for. Some knowledge of
geography lets us know we are just slightly north into the bordering
state of Nebraska. But, we can also perform another call using
`get_brewery(state = "nebraska")` to verify.

``` r
get_brewery(state = "nebraska") %>%
  select(latitude, longitude)
```

    ## # A tibble: 50 × 2
    ##    latitude    longitude   
    ##    <chr>       <chr>       
    ##  1 <NA>        <NA>        
    ##  2 <NA>        <NA>        
    ##  3 41.28489756 -96.00634511
    ##  4 40.77999602 -96.70701376
    ##  5 <NA>        <NA>        
    ##  6 42.87204733 -100.5457277
    ##  7 <NA>        <NA>        
    ##  8 40.90629564 -97.09777551
    ##  9 <NA>        <NA>        
    ## 10 41.25449082 -95.93090524
    ## # … with 40 more rows
…
``` r
noMod %>%
  select(name, city, state, latitude, longitude) %>%
  filter(city != "Killeshin") %>%
  mutate(meanLat = mean(as.numeric(latitude), na.rm = TRUE), 
         meanLong = mean(as.numeric(longitude), na.rm = TRUE),
         distFromMean = sqrt(((as.numeric(latitude) - meanLat)^2) +
           ((as.numeric(longitude)- meanLong)^2))) %>%
  arrange(state)
```

    ## # A tibble: 49 × 8
    ##    name                      city  state latit…¹ longi…² meanLat meanL…³ distF…⁴
    ##    <chr>                     <chr> <chr> <chr>   <chr>     <dbl>   <dbl>   <dbl>
    ##  1 12 West Brewing Company   Gilb… Ariz… <NA>    <NA>       40.7   -103.   NA   
    ##  2 12 West Brewing Company … Mesa  Ariz… 33.436… -111.5…    40.7   -103.   11.3 
    ##  3 1912 Brewing              Tucs… Ariz… 32.246… -110.9…    40.7   -103.   11.7 
    ##  4 10 Barrel Brewing Co      San … Cali… 32.714… -117.1…    40.7   -103.   16.3 
    ##  5 101 North Brewing Company Peta… Cali… 38.270… -122.6…    40.7   -103.   19.9 
    ##  6 14 Cannons Brewing Compa… West… Cali… 34.153… -118.8…    40.7   -103.   17.2 
    ##  7 1850 Brewing Company      Mari… Cali… 37.570… -119.9…    40.7   -103.   17.3 
    ##  8 10 Barrel Brewing Co - D… Denv… Colo… 39.759… -104.9…    40.7   -103.    2.26
    ##  9 105 West Brewing Co       Cast… Colo… 39.382… -104.8…    40.7   -103.    2.34
    ## 10 12Degree Brewing          Loui… Colo… 39.978… -105.1…    40.7   -103.    2.32
    ## # … with 39 more rows, and abbreviated variable names ¹​latitude, ²​longitude,
    ## #   ³​meanLong, ⁴​distFromMean
…
``` r
nyDist <- ny %>% 
  select(name, brewery_type, latitude, longitude) %>%
  group_by(brewery_type) %>%
  mutate(meanLat = mean(as.numeric(latitude), na.rm = TRUE), 
         meanLong = mean(as.numeric(longitude), na.rm = TRUE)) %>%
  arrange(meanLat)
nyDist
```

    ## # A tibble: 50 × 6
    ##    name                                  brewe…¹ latit…² longi…³ meanLat meanL…⁴
    ##    <chr>                                 <chr>   <chr>   <chr>     <dbl>   <dbl>
    ##  1 "Anheuser-Busch Inc â\u0080\u0093 Ba… large   43.165… -76.31…    41.6   -74.1
    ##  2 "Blue Point Brewing Co"               large   40.759… -73.02…    41.6   -74.1
    ##  3 "Blue Point Brewing"                  large   40.766… -73.02…    41.6   -74.1
    ##  4 "12 Gates Brewing Company"            brewpub <NA>    <NA>       42.5   -74.9
    ##  5 "16 Stone Brewpub"                    brewpub 43.242… -75.25…    42.5   -74.9
    ##  6 "2 Way Brewing Company"               brewpub 41.508… -73.98…    42.5   -74.9
    ##  7 "42 North Brewing Company"            brewpub 42.769… -78.60…    42.5   -74.9
    ##  8 "6 Degrees of Separation"             brewpub 41.158… -73.86…    42.5   -74.9
    ##  9 "Alewife Brewing Company"             brewpub 40.742… -73.95…    42.5   -74.9
    ## 10 "Amber Lantern Brewing Company"       brewpub 42.740… -78.13…    42.5   -74.9
    ## # … with 40 more rows, and abbreviated variable names ¹​brewery_type, ²​latitude,
    ## #   ³​longitude, ⁴​meanLong
…
brew_reg
```

    ## # A tibble: 50 × 18
    ##    id    name  brewe…¹ street addre…² addre…³ city  state Region count…⁴ posta…⁵
    ##    <chr> <chr> <chr>   <chr>  <chr>   <lgl>   <chr> <chr> <chr>  <chr>   <chr>  
    ##  1 10-5… 10-5… micro   400 B… <NA>    NA      Knox  Indi… Midwe… <NA>    46534  
    ##  2 10-b… 10 B… large   62970… <NA>    NA      Bend  Oreg… West   <NA>    97701-…
    ##  3 10-b… 10 B… large   1135 … <NA>    NA      Bend  Oreg… West   <NA>    97703-…
    ##  4 10-b… 10 B… large   62950… <NA>    NA      Bend  Oreg… West   <NA>    97701  
    ##  5 10-b… 10 B… large   826 W… <NA>    NA      Boise Idaho West   <NA>    83702-…
    ##  6 10-b… 10 B… large   2620 … <NA>    NA      Denv… Colo… West   <NA>    80205-…
    ##  7 10-b… 10 B… large   1411 … <NA>    NA      Port… Oreg… West   <NA>    97209-…
    ##  8 10-b… 10 B… large   1501 … <NA>    NA      San … Cali… West   <NA>    92101-…
    ##  9 10-t… 10 T… micro   490 M… <NA>    NA      Reno  Neva… West   <NA>    89502  
    ## 10 101-… 101 … brewpub 29479… <NA>    NA      Quil… Wash… West   <NA>    98376-…
    ## # … with 40 more rows, 7 more variables: country <chr>, longitude <chr>,
    ## #   latitude <chr>, phone <chr>, website_url <chr>, updated_at <chr>,
    ## #   created_at <chr>, and abbreviated variable names ¹​brewery_type, ²​address_2,
    ## #   ³​address_3, ⁴​county_province, ⁵​postal_code
…
