…
``` r
nyDist <- ny %>% 
  select(name, brewery_type, latitude, longitude) %>%
  group_by(brewery_type) %>%
  mutate(meanLat = mean(as.numeric(latitude), na.rm = TRUE), 
         meanLong = mean(as.numeric(longitude), na.rm = TRUE)) %>%
  arrange(meanLat)
nyDist
```

    ## # A tibble: 50 x 6
    ## # Groups:   brewery_type [6]
    ##    name                                    brewery_type latitude    longitude    meanLat meanLong
    ##    <chr>                                   <chr>        <chr>       <chr>          <dbl>    <dbl>
    ##  1 Anheuser-Busch Inc Ã¢Â€Â“ Baldwinsville large        43.16510925 -76.31159343    41.6    -74.1
    ##  2 Blue Point Brewing Co                   large        40.75913445 -73.0216063     41.6    -74.1
    ##  3 Blue Point Brewing                      large        40.76644215 -73.02103705    41.6    -74.1
    ##  4 12 Gates Brewing Company                brewpub      <NA>        <NA>            42.5    -74.9
    ##  5 16 Stone Brewpub                        brewpub      43.24211175 -75.2565195     42.5    -74.9
    ##  6 2 Way Brewing Company                   brewpub      41.5082102  -73.9809868     42.5    -74.9
    ##  7 42 North Brewing Company                brewpub      42.769311   -78.607989      42.5    -74.9
    ##  8 6 Degrees of Separation                 brewpub      41.15866213 -73.86768188    42.5    -74.9
    ##  9 Alewife Brewing Company                 brewpub      40.74232214 -73.95625257    42.5    -74.9
    ## 10 Amber Lantern Brewing Company           brewpub      42.7408423  -78.132363      42.5    -74.9
    ## # ... with 40 more rows
…
